var1,var2,target
-54,38,0
-42,8,0
-57,39,0
5,39,0
-31,31,0
-18,0,0
-93,31,0
-90,28,0
-35,16,0
-24,7,0
-30,15,0
10,33,0
-52,10,0
-20,21,0
-90,24,0
15,5,0
-87,7,0
-100,19,0
-38,0,0
-100,16,0
-89,3,0
-97,4,0
-82,22,0
-34,10,0
-22,3,0
-83,38,0
-49,30,0
-80,2,0
-6,22,0
-93,23,0
-72,15,0
-12,22,0
-69,20,0
-46,14,1
-79,13,1
-36,36,1
-35,32,1
8,29,1
-69,28,1
-53,0,1
11,23,1
-74,37,1
-26,15,1
-99,12,1
17,2,1
-47,20,1
-19,3,1
-48,25,1
-57,2,1
10,39,1
63,68,1
24,68,1
64,83,1
51,71,1
0,93,1
3,83,1
42,90,1
39,66,1
73,94,1
56,82,1
2,89,1
14,92,1
23,93,1
-13,95,1
33,74,1
-11,87,1
72,75,2
47,68,2
57,73,2
-8,65,2
42,85,2
43,74,2
90,81,2
45,69,2
78,78,2
85,63,2
84,99,2
1,68,2
25,96,2
97,82,2
83,93,2
-9,72,2
-8,68,2
72,69,2
15,90,2
4,89,2
12,61,2
72,64,2
45,63,2
18,95,2
-12,99,2
13,81,2
92,74,2
79,80,2
-19,75,2
69,93,2
2,82,2
40,69,2
-2,85,2
