feature1,feature2,target
56,4.575248477818607,classB
81,5.31570219070991,classB
96,7.992341544877893,classB
75,3.385637479545645,classB
40,7.453727219029903,classB
53,0.6996440766971235,classB
19,6.421735407447624,classB
25,7.885103485576347,classB
49,7.361254737774055,classB
14,6.2409470292784155,classB
42,7.4038546476206495,classB
92,4.751861189088726,classB
61,1.3061048013958052,classB
48,3.661094060844886,classB
22,7.681849584782316,classB
71,6.750475362964255,classB
14,6.116370509773094,classB
70,3.808125748897541,classB
80,2.801353281597029,classB
52,4.1022087236152975,classB
86,3.5101928255890718,classA
11,0.32682670298281025,classB
43,4.961413150885914,classB
32,4.982733043510661,classB
64,0.12382335452632542,classB
4,7.73015640410097,classA
84,5.0794972085307295,classB
30,3.3098417665605364,classB
15,6.1924197063598,classB
52,2.832381793869449,classB
64,2.4487219519071886,classB
87,5.47827041116594,classB
59,6.039114245543756,classB
55,6.2604130273992284,classB
58,0.791024005665931,classB
86,6.792961785279559,classB
92,7.224138490293187,classB
3,7.245333402762008,classA
44,6.185280058559694,classB
54,5.902294152938506,classB
76,3.9474209954377066,classB
82,1.0375736465654208,classA
83,4.960510035217838,classB
8,5.8904401916681834,classB
21,0.3597656161630063,classB
90,6.779917537556875,classB
18,2.213766370655934,classB
3,1.659536109702767,classB
22,3.87729622771736,classB
41,3.6255232525783008,classB
15,0.3092320561815969,classB
51,5.573182365443035,classB
59,5.262472222023097,classB
45,5.040953470731123,classB
77,0.4683605026300599,classB
9,4.249017496306198,classB
30,6.1439501674298,classB
45,7.502259781288142,classB
70,5.4177088707642955,classB
6,2.5167759742324316,classB
12,5.575630760427871,classB
69,1.883526305074902,classB
13,4.018131361849941,classB
34,1.3941790907978593,classB
97,5.36120844661804,classB
92,7.825162427695457,classB
65,3.86093002566946,classB
58,7.422221057923681,classB
78,2.8122320771000604,classB
25,7.371390823229687,classB
30,7.446539521287037,classB
80,7.162697657539098,classB
23,7.7411061049994,classB
60,0.15907160199520298,classB
11,6.698929172067813,classB
29,0.9810170479190914,classB
11,5.870433436131984,classB
7,6.725725169616288,classB
15,4.809736401510721,classB
98,2.1990028444083887,classA
87,4.346119508783041,classB
75,5.718145577265134,classB
51,4.368980694125146,classB
24,6.6685200540677725,classB
39,3.0258290030438513,classB
57,0.8920335906018595,classB
53,2.0257391524504937,classB
36,6.8012108363471935,classB
23,4.701987613572485,classB
66,5.53504980366853,classB
67,0.7597083888854872,classB
44,4.208592458816536,classB
70,1.5624825234158841,classB
44,2.2764914340640905,classB
73,7.168598223189911,classB
48,0.32287916069064515,classB
55,1.7982870686337096,classB
44,5.189812027150426,classB
19,5.566903244519433,classB
31,2.412984198787174,classB
82,0.9707306217510974,classA
72,1.2508683572284571,classB
88,7.205453032229665,classB
71,7.5781238271354425,classB
35,2.396679624092523,classB
94,3.8006561835487718,classA
6,3.1630356451884243,classB
21,7.045998828153782,classB
44,6.730231118567938,classB
54,6.295224750587819,classB
34,5.144671253048497,classB
12,6.814278839786622,classB
38,5.758504338838182,classB
80,1.7354188160411548,classB
31,5.272975387261255,classB
17,0.6638944393542872,classB
20,5.253453108181593,classB
30,7.7945218913331855,classB
74,5.689417234784695,classB
55,5.04404845854387,classB
35,5.8027767041020555,classB
38,4.34858365446529,classB
94,5.691815577670063,classB
73,6.114919366624164,classB
22,0.3985248931833034,classB
63,7.0461113101027335,classB
12,7.682244353948795,classA
66,7.509143061338389,classB
59,0.023497915273009262,classB
51,1.0000149697198957,classB
91,5.808738024313026,classB
12,0.0881342186834031,classB
85,4.733817953143728,classB
27,1.0189151526118385,classB
94,4.366123463333213,classB
54,7.111594997573582,classB
4,2.079519779766035,classB
44,0.3152635760115112,classB
24,4.113225307878729,classB
81,1.7416339988273881,classA
64,0.5318759251734599,classB
50,6.482655179660618,classB
20,2.716443753875267,classB
17,4.804460276900604,classB
1,7.166270138787294,classA
47,3.801873852327007,classB
23,6.730922845268196,classB
96,4.4325503302854035,classB
2,7.910799915966491,classA
87,3.393780562183845,classA
73,0.6556630506009293,classB
23,1.82273051687,classB
53,1.5168097449638562,classB
6,7.805570205370526,classA
47,4.68251338157665,classB
68,5.450420337711299,classB
45,0.822956708184619,classB
22,0.0022200959344713667,classB
56,3.4848071969974663,classB
3,7.020831321071159,classA
56,7.487916348150587,classB
57,3.7582394388944973,classB
82,3.915465780733019,classA
57,0.19788819924136813,classB
45,2.002178966228403,classB
96,3.8359807253173974,classA
34,7.586599771022954,classB
34,1.7409200103242357,classB
45,0.9729928402733021,classB
72,0.2108447971160432,classB
49,5.9446230404517335,classB
41,7.904733839547633,classB
30,2.7043149896414587,classB
97,5.574187261113311,classB
55,1.9227163402498393,classB
39,7.359555266043399,classB
83,3.747789143249573,classA
30,7.020988751681157,classB
13,6.5275094252811385,classB
87,6.9898672199108285,classB
68,1.0571601817193361,classB
78,5.855810154707173,classB
5,1.0867004198190893,classB
20,3.60864548639244,classB
23,7.422129774451421,classB
31,5.759187816636197,classB
61,4.823271930469516,classB
90,3.9694183226314257,classA
22,5.542955856824428,classB
98,4.775673045773557,classB
61,7.760265649251973,classB
61,1.8754326850308507,classB
40,3.6502319287345006,classB
82,7.51229996046122,classB
99,4.033346681888362,classB
69,7.108707076016108,classB
13,7.598705785838216,classA
87,6.7735814390982885,classB
24,1.4475036196775148,classB
72,6.050077258740283,classB
13,5.138142154807306,classB
73,5.17261465082566,classB
47,6.1976305140910934,classB
4,1.858638778647272,classB
36,6.480865059989651,classB
20,3.7186134075159742,classB
30,3.130065745673704,classB
90,7.9699800312068225,classB
66,6.173299238221501,classB
83,1.3187788686893027,classA
55,0.02688592160006298,classB
69,1.006715323651405,classB
89,6.513043371196515,classB
21,6.571803244897982,classB
33,1.7043434299680182,classB
68,6.120660573913074,classB
26,0.7392529322982204,classB
3,0.1437565738153106,classB
9,3.6255338387329408,classB
53,6.325698502442556,classB
36,3.8269619889062962,classB
82,6.797340664869532,classB
58,1.8389158231830205,classB
7,5.8863081595028195,classB
32,1.8934162930824021,classB
50,6.272631404794222,classB
14,7.2801334909063335,classA
64,2.3532072755828937,classB
95,6.442817923039954,classB
32,6.815401861833913,classB
52,4.9693272261312185,classB
54,3.3848159714595836,classB
45,0.8619110584975171,classB
33,0.36644435423402566,classB
52,4.240367389826861,classB
75,0.0468316539900977,classB
72,6.889668180831112,classB
62,1.6760158335001147,classB
42,0.20039098260072485,classB
51,4.44197260561169,classB
4,6.6358554776229735,classB
99,5.72019142215826,classB
82,2.363063457062423,classA
39,7.7926374708629895,classB
21,0.9044961804294598,classB
69,1.7690400199729526,classB
11,5.40568476193795,classB
53,4.589647796245579,classB
3,2.4045519840620324,classB
65,2.130527860061812,classB
62,3.4078654931219763,classB
57,5.037830958165594,classB
84,7.411048837426005,classB
29,3.0709958222019926,classB
68,5.88957008323976,classB
99,7.283327704702821,classB
16,2.2505949454080305,classB
61,7.807268404684271,classB
53,0.169056850797908,classB
86,0.12104923222144759,classA
52,6.657219558524507,classB
76,4.0333887974135125,classB
86,3.443862456696797,classA
50,7.718045507785955,classB
83,7.179610781840482,classB
15,2.5993669607950514,classB
50,6.334687790301168,classB
27,4.929199491160195,classB
70,7.466398737155164,classB
99,3.5833049787137963,classA
41,6.860863871483598,classB
38,6.340244243368181,classB
44,1.7233155558728788,classB
68,6.207737041782268,classB
23,3.669748827258317,classB
90,4.809583797796924,classB
83,7.662316441401189,classB
4,2.285416871144883,classB
45,2.2943334341572372,classB
7,2.5028646922465425,classB
48,7.526723862171285,classB
17,4.805914306409726,classB
64,5.519989998668453,classB
15,3.058373470578183,classB
32,1.9718491227333539,classB
68,2.6027062380412254,classB
97,3.649731595344485,classA
84,7.070601323953488,classB
52,3.281691694916459,classB
4,0.35901812798916577,classB
10,6.349830961138337,classB
74,4.562094570578903,classB
3,0.6234838670116689,classB
73,5.448204636097101,classB
91,4.542044655618414,classB
91,3.4095865645157835,classA
36,1.6995466861020558,classB
81,4.469544850600452,classB
94,6.914531008338309,classB
20,6.820828880808363,classB
24,6.959815792487505,classB
94,5.9514793212026715,classB
21,0.2028699745167053,classB
91,7.7208109072253075,classB
52,2.496660933545419,classB
84,3.3445547477240583,classA
32,4.9756462286007075,classB
18,2.1997534059323653,classB
32,0.39678974917079124,classB
8,2.233043132116241,classB
4,2.1883707528110197,classB
52,4.416985042531879,classB
56,7.1312351280254775,classB
23,6.268113229351932,classB
6,3.8596395180028287,classB
89,6.448218496782659,classB
51,7.3233775013608104,classB
80,1.6928392571041924,classB
49,3.296782526546928,classB
6,2.9945040130534437,classB
47,3.999375637301216,classB
98,1.2137269075611403,classA
13,4.443956598203251,classB
94,1.9769157302281641,classA
86,2.8109458730755223,classA
77,0.8064081123279436,classB
88,0.6735727905452196,classA
66,3.8024539348741344,classB
42,2.462308941946823,classB
97,5.5737109359868455,classB
83,3.5942465342307903,classA
5,2.2141487610083423,classB
19,2.56634711093837,classB
81,4.82644270691201,classB
43,4.148031240582952,classB
36,7.40100577964364,classB
61,7.916005276294068,classB
68,5.640703308016948,classB
62,7.048692940756041,classB
16,0.848398995122877,classB
95,5.332534121086948,classB
19,5.23996225408446,classB
32,4.777402535215704,classB
3,7.941646910819547,classA
20,3.096621634849236,classB
78,1.5959882277545043,classB
22,1.1855696582211825,classB
7,2.0563918813398923,classB
15,6.04911360517739,classB
4,3.9860812923059106,classB
95,1.8999729360874023,classA
54,6.453138593021151,classB
7,5.9253249196070135,classB
23,5.534140172651744,classB
39,2.2716055948907776,classB
52,5.5965808324326165,classB
63,3.852606565361719,classB
67,6.16174802303097,classB
19,4.589228271426418,classB
50,5.714654559424012,classB
12,4.10515067173735,classB
74,6.213741462828072,classB
87,6.999381840085581,classB
97,6.6687853733666325,classB
17,6.291146222140987,classB
3,6.5121767218861635,classB
54,3.975649859547328,classB
20,0.7513633567521891,classB
37,3.7569282934192483,classB
13,5.263739264145037,classB
27,1.9436396029111878,classB
24,0.4925603005300907,classB
72,0.43319690931345,classB
98,1.5660152655206145,classA
33,5.452446991069288,classB
41,3.8775965148242646,classB
81,5.877993320491857,classB
47,0.008323987414335932,classB
61,2.4179022076155086,classB
27,6.092974995903051,classB
60,6.874663229426685,classB
84,5.1897945025063805,classB
90,4.371271371828646,classB
6,6.834955773233499,classB
20,7.293761548873657,classB
14,1.8225413364078902,classB
69,1.6679952603889783,classB
96,4.502651335913038,classB
87,4.811212804282732,classB
20,5.000669243993615,classB
15,4.856003649979474,classB
71,5.995234781190328,classB
51,7.410955321013306,classB
26,3.2261056563627175,classB
74,5.49218612834989,classB
42,7.238168226470125,classB
47,3.463357719684275,classB
16,3.6027730536050164,classB
95,2.868903764597788,classA
48,3.6302435270215287,classB
47,6.487391377678124,classB
28,4.672080117206104,classB
3,3.003594867637558,classB
21,6.886621248245704,classB
77,5.96013512029349,classB
40,6.5442166831529525,classB
21,1.7269726687629205,classB
88,5.816215405570696,classB
27,5.288858813746253,classB
24,6.039416252937098,classB
98,4.704747087357883,classB
32,2.1486020940594006,classB
58,5.952692905630037,classB
30,1.4958864802621719,classB
41,1.8292966406187663,classB
58,7.943261111870935,classB
38,4.820943836712151,classB
8,2.9037064892316318,classB
84,3.2198922813195017,classA
40,6.8371170232082354,classB
53,5.011198308446985,classB
70,1.5918759726493414,classB
96,4.005706012825373,classB
62,1.6855210908598863,classB
33,3.756811114627147,classB
59,0.3720817907167282,classB
65,6.75264064299968,classB
94,5.188347102368682,classB
43,3.1161614536731026,classB
92,7.098323728048326,classB
88,5.59349243795821,classB
44,1.8105655460550363,classB
84,7.820495983348383,classB
98,3.184502662474296,classA
68,4.990708523926642,classB
59,6.1118323441244655,classB
37,1.350562058390941,classB
72,5.185561132763329,classB
71,5.625104272989534,classB
65,5.625976618627739,classB
19,2.773933217080234,classB
50,7.336455010002736,classB
49,4.128900709051703,classB
25,1.2045246367100484,classB
86,3.7792974139143825,classA
77,0.2949508133599297,classB
17,5.9347743389048455,classB
76,7.76733992751225,classB
73,4.844538092725246,classB
22,1.4971456534638081,classB
22,6.660390828788727,classB
1,7.841176376186538,classA
85,2.0573715016499072,classA
90,7.384101468310936,classB
83,5.042628717711814,classB
38,7.17810886397589,classB
45,1.5235760067845119,classB
3,5.782812337245752,classB
62,1.8049339734396472,classB
88,0.42627367750684986,classA
26,5.906767207514252,classB
29,7.603827584884018,classB
37,5.664993191902012,classB
71,2.8469025644267667,classB
89,2.7472774061499967,classA
30,1.28204718096225,classB
53,0.8415139995890186,classB
40,5.606860420690781,classB
54,5.277918518500395,classB
99,7.755521327445245,classB
27,7.409814297111091,classB
50,3.880908368746499,classB
22,7.5921890339100155,classB
99,6.65261782830253,classB
79,2.705047791811282,classB
97,4.210319197209622,classB
69,4.136120726765747,classB
10,3.9774328319422985,classB
37,2.455104020038406,classB
12,4.335874803441581,classB
40,7.942539031392091,classB
88,1.7637512509422644,classA
23,6.104224258024356,classB
41,6.1247127275579905,classB
48,4.524034256604415,classB
55,5.215641539308771,classB
43,4.498715582454203,classB
59,0.7829790690670366,classB
32,2.7994027016162617,classB
53,2.7242984506243584,classB
19,5.629211829938971,classB
64,1.6202843267847955,classB
69,1.0660907510094075,classB
4,6.7933988408797585,classB
54,5.274719689334118,classB
3,3.230378444420153,classB
42,1.9861160930664967,classB
90,7.186391975585405,classB
90,4.677510935930496,classB
61,4.696065038579968,classB
