feature1, feature2, feature3, target
87,87,-186,0
4,67,-150,0
-3,62,-129,0
-49,71,-106,0
-70,74,-198,0
-77,84,-198,0
-77,86,-125,0
-55,94,-144,0
-48,69,-124,0
-35,81,-155,0
-60,64,-125,0
13,92,-173,0
-7,70,-191,0
-76,82,-116,0
6,65,-124,0
-31,80,-162,0
-86,82,-196,0
-8,82,-138,0
-84,78,-173,0
-15,86,-174,0
-77,97,-160,0
-27,92,-159,0
-18,62,-119,0
-55,97,-186,0
2,63,-190,0
-62,71,-128,0
-69,68,-122,0
4,77,-110,0
-32,94,-108,0
-64,67,-119,0
-40,90,-175,0
-68,67,-182,0
-74,68,-156,0
-74,93,-139,0
8,76,-104,0
-54,78,-184,0
-81,85,-143,0
-11,85,-155,0
-9,98,-136,0
4,61,-192,0
11,85,-123,0
-5,70,-194,0
-34,92,-175,0
-33,69,-171,0
-54,70,-177,0
14,60,-101,0
-1,97,-135,0
-24,87,-196,0
-20,78,-144,0
-39,61,-180,0
-94,95,-119,0
19,67,-170,0
-4,69,-173,0
-89,83,-169,0
3,91,-181,0
-24,96,-137,0
-81,63,-179,0
-49,75,-119,0
-67,85,-137,0
-33,77,-110,0
-15,77,-188,0
-61,61,-148,0
-11,85,-106,0
-40,98,-106,0
-78,91,-143,0
-88,71,-197,0
-92,68,-161,0
-23,96,-133,0
-98,92,-192,0
-83,83,-118,0
-5,67,-110,0
-11,63,-103,0
-68,63,-112,0
-79,87,-179,0
-60,60,-198,0
-28,82,-146,0
-45,92,-120,0
-31,84,-168,0
17,79,-127,0
-62,94,-191,0
-20,92,-139,0
-33,98,-139,0
-6,86,-161,0
-8,89,-111,0
-74,81,-147,0
-18,88,-106,0
-69,95,-192,0
-52,80,-187,0
-35,70,-122,0
-26,76,-119,0
-25,74,-115,0
-15,66,-106,0
-55,73,-195,0
-100,87,-151,0
-41,65,-168,0
16,62,-176,0
-2,95,-121,0
17,80,-157,0
10,68,-122,0
-96,98,-120,0
-39,75,-114,0
-67,95,-146,0
-97,76,-102,0
-93,77,-121,0
-78,95,-115,0
-47,97,-104,0
-18,76,-112,0
-59,71,-185,0
-82,63,-106,0
8,68,-145,0
-60,81,-116,0
-15,93,-130,0
-94,84,-143,0
-95,82,-129,0
-63,81,-170,0
-81,91,-114,0
-43,61,-164,0
-34,70,-130,0
-1,94,-127,0
-48,92,-200,0
-96,78,-198,0
-94,68,-174,0
-27,97,-150,0
-44,88,-140,0
-95,82,-147,0
-95,96,-169,0
-61,60,-165,0
-67,61,-196,0
-27,62,-110,0
-69,72,-101,0
-70,94,-196,0
-73,74,-198,0
-73,62,-169,0
-40,65,-164,0
-53,76,-102,0
-81,97,-111,0
13,71,-103,0
-94,94,-157,0
-33,82,-175,0
-81,76,-103,0
-84,96,-105,0
-25,74,-161,0
-65,97,-152,0
-98,89,-160,0
-94,93,-104,0
-38,75,-189,0
-83,77,-182,0
-52,70,-176,0
-68,97,-106,0
-53,81,-122,0
3,93,-200,0
-33,89,-101,0
-48,98,-185,0
-87,68,-114,0
-51,64,-163,0
-33,67,-193,0
-27,94,-137,0
-75,81,-113,0
-35,88,-181,0
-49,70,-154,0
-40,65,-177,0
-79,64,-164,0
4,95,-165,0
-36,80,-190,0
-43,72,-161,0
-33,78,-200,0
19,83,-199,0
-6,99,-129,0
-81,74,-125,0
-35,88,-147,0
-51,80,-130,0
-79,92,-130,0
-48,79,-125,0
-65,95,-178,0
15,79,-103,0
-12,82,-109,0
11,83,-187,0
-83,75,-106,0
-71,86,-152,0
3,96,-175,0
-97,71,-150,0
-84,68,-169,0
-10,87,-192,0
-95,71,-189,0
-89,99,-182,0
-44,71,-120,0
-6,72,-169,0
-53,86,-126,0
-5,82,-173,0
-17,81,-169,0
-83,88,-198,0
-39,96,-176,0
-85,82,-153,0
-32,80,-128,0
8,69,-152,0
16,60,-154,0
-17,99,-164,0
-83,67,-199,0
-85,61,-178,0
-55,90,-143,0
-33,83,-159,0
-58,88,-157,0
-21,72,-188,0
-57,96,-121,0
-43,80,-165,0
8,88,-155,0
-23,99,-127,0
-79,91,-113,0
-38,70,-194,0
-91,69,-187,0
-5,69,-187,0
-27,86,-166,0
-50,79,-111,0
-79,65,-110,0
-40,75,-140,0
-13,89,-174,0
-79,90,-181,0
-69,67,-120,0
-2,66,-152,0
2,63,-159,0
-66,64,-189,0
-19,74,-174,0
11,68,-182,0
-95,77,-156,0
-72,71,-111,0
-66,84,-137,0
6,68,-193,0
-18,73,-153,0
11,66,-169,0
-2,78,-157,0
-19,73,-115,0
-75,67,-198,0
-32,97,-149,0
-86,78,-108,0
-4,91,-176,0
-88,83,-148,0
-13,99,-130,0
-18,65,-160,0
-47,89,-141,0
-27,62,-126,0
-21,77,-113,0
-55,92,-178,0
2,91,-105,0
-9,73,-135,0
-49,99,-188,0
-2,76,-193,0
-13,81,-120,0
-40,80,-180,0
-96,60,-112,0
-87,75,-147,0
-84,62,-156,0
12,95,-105,0
-23,60,-170,0
-3,73,-114,0
-42,68,-151,0
-95,99,-164,0
-93,83,-185,0
18,67,-186,0
-88,82,-181,0
-6,91,-122,0
-86,60,-193,0
11,71,-161,0
-92,91,-160,0
-34,93,-131,0
-50,65,-180,0
-91,79,-160,0
-8,78,-105,0
-31,94,-168,0
-43,78,-151,0
-50,96,-186,0
3,94,-123,0
-94,85,-144,0
-12,85,-178,0
-4,82,-149,0
18,82,-112,0
-77,82,-183,0
-22,98,-110,0
8,87,-156,0
-41,92,-147,0
-81,78,-125,0
0,92,-104,0
-38,81,-153,0
-48,79,-191,0
-11,71,-199,0
-100,91,-172,0
-7,75,-177,0
-33,78,-188,0
-37,87,-128,0
-89,87,-150,0
1,91,-125,0
-94,93,-178,0
-70,91,-192,0
-56,72,-187,0
-42,62,-174,0
-91,62,-149,0
-49,73,-199,0
-3,90,-141,0
-52,78,-145,0
8,91,-102,0
-65,97,-162,0
-79,79,-167,0
-55,77,-196,0
-48,68,-199,0
-48,75,-112,0
-10,89,-125,0
12,77,-189,0
-10,70,-183,0
-49,62,-196,0
15,69,-103,0
-49,99,-165,0
-54,67,-107,0
-10,77,-130,0
15,94,-175,0
-29,82,-127,0
-29,81,-164,0
-5,95,-104,0
-49,66,-111,0
-97,78,-106,0
-28,92,-118,0
-29,88,-171,0
-7,66,-140,0
-67,99,-112,0
-93,76,-155,0
-13,82,-200,0
-32,74,-199,0
19,76,-129,0
7,74,-163,0
10,71,-174,0
-84,95,-174,0
-42,84,-111,0
-18,91,-134,0
-15,98,-169,0
-70,90,-186,0
-17,97,-106,1
87,31,-191,1
28,17,-128,1
65,19,-181,1
98,4,-164,1
33,37,-166,1
54,31,-113,1
75,9,-126,1
43,39,-157,1
85,27,-118,1
-4,6,-180,1
88,16,-134,1
-9,32,-133,1
70,30,-200,1
64,7,-197,1
-11,36,-124,1
21,10,-198,1
38,0,-124,1
60,16,-200,1
-17,28,-182,1
97,6,-184,1
-5,33,-152,1
45,21,-156,1
-10,8,-189,1
-1,26,-127,1
-16,38,-139,1
27,10,-112,1
-3,21,-139,1
-10,15,-155,1
-7,5,-120,1
66,9,-181,1
55,18,-140,1
91,22,-188,1
93,28,-108,1
-10,3,-105,1
86,1,-178,1
-8,37,-126,1
-5,33,-162,1
0,8,-147,1
80,36,-111,1
82,28,-164,1
-16,6,-186,1
68,27,-172,1
71,12,-117,1
40,24,-197,1
50,6,-189,1
53,27,-132,1
39,33,-158,1
-17,29,-114,1
62,9,-144,1
88,12,-119,1
52,16,-137,1
74,17,-157,1
37,38,-113,1
18,35,-140,1
45,32,-122,1
25,39,-141,1
95,3,-178,1
-9,22,-153,1
-7,13,-141,1
5,28,-135,1
95,11,-111,1
-17,17,-196,1
-9,37,-111,1
87,5,-155,1
36,13,-120,1
81,25,-169,1
92,10,-158,1
9,20,-164,1
43,19,-147,1
93,14,-158,1
34,39,-146,1
7,2,-133,1
85,30,-145,1
13,14,-168,1
14,38,-133,1
82,35,-150,1
47,3,-161,1
8,19,-144,1
38,24,-153,1
94,21,-125,1
5,36,-153,1
69,31,-110,1
-7,0,-197,1
81,30,-157,1
26,15,-189,1
39,38,-107,1
55,28,-196,1
85,12,-115,1
-9,18,-190,1
40,18,-157,1
20,5,-166,1
-12,5,-199,1
45,35,-173,1
86,10,-173,1
8,29,-134,1
-15,22,-103,1
96,27,-112,1
59,23,-123,1
60,13,-189,1
28,31,-133,1
79,21,-144,1
85,22,-117,1
42,31,-151,1
-11,15,-136,1
85,6,-150,1
60,35,-184,1
34,2,-131,1
99,12,-193,1
86,31,-115,1
66,20,-162,1
17,39,-192,1
68,12,-159,1
81,36,-195,1
45,24,-159,1
36,7,-158,1
99,26,-111,1
-3,32,-156,1
50,17,-192,1
33,7,-144,1
58,35,-164,1
89,34,-179,1
99,39,-189,1
30,23,-176,1
6,15,-166,1
26,31,-166,1
91,34,-181,1
60,19,-171,1
46,38,-154,1
60,11,-129,1
0,6,-150,1
94,2,-122,1
49,27,-197,1
34,17,-116,1
33,15,-175,1
24,37,-186,1
79,13,-194,1
82,16,-176,1
47,24,-187,1
57,22,-135,1
51,15,-178,1
77,8,-112,1
52,23,-160,1
68,16,-123,1
11,39,-194,1
5,32,-142,1
55,19,-135,1
20,22,-145,1
-13,29,-194,1
23,12,-110,1
67,2,-141,1
-11,38,-141,1
37,14,-130,1
64,38,-106,1
99,35,-138,1
1,24,-128,1
30,17,-103,1
95,34,-176,1
91,35,-162,1
-5,22,-129,1
13,5,-134,1
50,27,-124,1
11,20,-115,1
-20,35,-112,1
-20,9,-125,1
3,31,-197,1
22,20,-143,1
-5,17,-142,1
-7,2,-178,1
-20,17,-192,1
-15,37,-197,1
22,10,-127,1
42,20,-148,1
-5,26,-175,1
38,33,-193,1
72,11,-126,1
79,32,-169,1
52,4,-127,1
42,38,-112,1
47,18,-177,1
96,7,-145,1
25,12,-125,1
57,24,-107,1
80,26,-173,1
73,3,-189,1
76,36,-125,1
-12,1,-169,1
58,35,-153,1
87,19,-119,1
94,15,-143,1
97,30,-153,1
37,19,-114,1
8,36,-154,1
10,29,-156,1
36,2,-113,1
-17,21,-106,1
-19,7,-157,1
46,7,-108,1
28,5,-182,1
53,35,-108,1
88,26,-185,1
14,19,-176,1
46,18,-119,1
71,29,-180,1
89,17,-182,1
9,9,-187,1
14,9,-149,1
97,38,-119,1
67,10,-135,1
21,13,-180,1
95,5,-155,1
-9,3,-189,1
99,30,-162,1
-18,4,-119,1
0,31,-140,1
48,9,-187,1
-1,35,-193,1
29,13,-159,1
71,26,-180,1
50,20,-131,1
92,26,-105,1
-10,18,-169,1
43,25,-188,1
81,29,-153,1
94,39,-111,1
20,33,-194,1
58,26,-120,1
-10,7,-172,1
20,29,-148,1
52,19,-160,1
96,0,-130,1
70,11,-166,1
31,39,-118,1
-6,37,-130,1
49,26,-121,1
79,15,-182,1
52,33,-131,1
27,1,-144,1
25,3,-125,1
82,4,-156,1
51,32,-189,1
-14,9,-104,1
62,0,-124,1
-7,22,-184,1
-17,25,-114,1
64,9,-160,1
16,17,-176,1
84,9,-155,1
93,4,-194,1
92,17,-193,1
-13,27,-124,1
52,34,-186,1
29,28,-147,1
37,39,-131,1
40,38,-181,1
5,15,-159,1
15,16,-189,1
24,24,-180,1
91,25,-113,1
77,25,-191,1
84,6,-143,1
23,15,-179,1
20,13,-111,1
26,15,-170,1
74,0,-198,1
56,31,-152,1
70,26,-185,1
49,26,-200,1
39,19,-114,1
69,4,-143,1
19,27,-121,1
19,26,-111,1
31,31,-144,1
50,27,-183,1
-7,15,-198,1
29,17,-160,1
23,39,-167,1
2,15,-110,1
40,39,-143,1
6,31,-164,1
83,32,-105,1
59,9,-192,1
26,18,-138,1
-17,38,-192,1
85,37,-170,1
49,6,-158,1
23,11,-170,1
60,34,-108,1
73,26,-135,1
23,21,-115,1
-12,8,-170,1
67,28,-103,1
79,36,-189,1
8,16,-169,1
13,28,-197,1
18,34,-142,1
62,15,-120,1
39,21,-178,1
-7,3,-189,1
12,13,-124,1
41,33,-109,1
71,22,-117,1
-8,29,-177,1
55,17,-188,1
87,20,-141,1
86,6,-191,1
62,29,-138,1
65,0,-176,1
60,6,-121,1
-16,8,-182,1
44,38,-118,1
82,28,-133,1
32,4,-170,1
-7,0,-152,1
89,31,-159,1
23,11,-151,1
75,24,-136,1
35,3,-196,1
82,35,-125,1
3,23,-185,1
84,39,-147,1
77,4,-155,1
57,19,-119,1
10,32,-166,1
67,1,-127,1
-12,18,-133,1
15,24,-176,1
38,37,-166,1
66,29,-199,1
6,35,-111,1
48,35,-144,1
2,10,-194,1
38,9,-192,1
-3,65,-147,2
24,61,147,2
23,86,173,2
41,68,150,2
73,65,197,2
22,76,146,2
25,86,182,2
98,93,159,2
89,74,141,2
93,61,105,2
68,80,117,2
44,92,191,2
20,98,103,2
28,67,105,2
73,69,160,2
28,88,155,2
75,80,148,2
87,76,187,2
-18,63,105,2
-6,95,109,2
18,60,144,2
25,90,173,2
22,63,111,2
50,95,126,2
72,90,132,2
90,97,106,2
-10,94,177,2
43,72,139,2
2,67,123,2
-16,69,147,2
44,82,112,2
23,74,140,2
5,82,101,2
76,93,198,2
87,89,180,2
73,72,122,2
81,73,106,2
-5,76,139,2
-7,76,123,2
25,95,103,2
44,93,135,2
22,71,102,2
11,84,148,2
19,84,114,2
75,64,136,2
2,77,135,2
36,65,194,2
-4,98,198,2
27,71,196,2
26,60,128,2
99,93,117,2
99,84,156,2
48,66,108,2
98,61,192,2
62,69,166,2
4,66,157,2
97,80,183,2
46,91,178,2
32,61,114,2
30,69,160,2
-8,70,164,2
84,88,171,2
-2,72,164,2
89,74,147,2
68,98,199,2
47,84,163,2
21,93,120,2
78,88,149,2
-6,66,146,2
56,98,173,2
69,80,197,2
4,87,155,2
-2,80,166,2
40,88,173,2
-16,74,147,2
81,68,135,2
57,95,138,2
84,88,133,2
17,81,109,2
-5,85,181,2
26,79,170,2
81,90,179,2
27,84,162,2
32,97,102,2
88,91,174,2
14,61,144,2
-15,68,140,2
19,76,141,2
31,98,134,2
23,66,158,2
15,85,180,2
74,73,152,2
71,81,144,2
56,90,133,2
36,77,130,2
14,99,129,2
-9,80,152,2
7,61,180,2
16,75,150,2
53,71,194,2
91,89,113,2
18,89,116,2
91,67,105,2
72,62,155,2
-3,69,197,2
50,74,109,2
46,91,175,2
28,60,193,2
79,76,171,2
89,72,111,2
8,92,189,2
78,99,174,2
70,75,139,2
-17,79,191,2
97,70,162,2
94,93,195,2
10,87,184,2
27,92,108,2
1,85,104,2
94,75,182,2
3,66,159,2
6,79,137,2
30,73,116,2
78,97,189,2
-11,79,173,2
-1,94,112,2
79,70,174,2
55,79,183,2
33,80,173,2
93,88,116,2
-11,68,158,2
38,80,119,2
56,98,153,2
70,80,158,2
70,74,188,2
25,98,127,2
77,78,128,2
99,91,124,2
42,70,145,2
26,75,116,2
56,72,129,2
65,84,144,2
91,74,147,2
7,72,103,2
48,81,133,2
90,76,152,2
9,75,195,2
86,71,189,2
98,83,130,2
47,73,179,2
80,65,106,2
2,92,136,2
-7,92,166,2
5,65,148,2
0,61,122,2
82,93,187,2
15,97,163,2
41,83,172,2
40,62,153,2
69,76,172,2
94,83,161,2
2,84,145,2
46,95,172,2
33,81,139,2
-19,65,159,2
26,65,168,2
76,66,140,2
65,77,187,2
59,86,140,2
13,69,140,2
-12,74,158,2
-10,84,172,2
2,95,145,2
35,99,189,2
39,72,182,2
72,71,100,2
66,63,180,2
52,89,174,2
76,85,170,2
-1,95,162,2
22,63,131,2
23,75,164,2
-14,94,179,2
44,76,102,2
83,85,183,2
26,91,197,2
22,61,174,2
61,85,139,2
-13,98,191,2
11,67,114,2
82,92,174,2
-9,84,162,2
-10,81,130,2
24,82,142,2
16,90,149,2
21,88,154,2
2,89,110,2
14,65,178,2
57,85,175,2
57,70,142,2
43,97,141,2
-11,73,135,2
50,79,140,2
60,92,145,2
81,70,101,2
40,76,145,2
57,95,103,2
23,63,173,2
78,84,133,2
-19,60,126,2
49,81,170,2
47,75,191,2
51,70,199,2
40,70,194,2
-17,72,134,2
32,91,193,2
85,73,106,2
70,88,123,2
12,96,192,2
7,62,145,2
37,64,119,2
21,78,183,2
-19,89,171,2
61,81,163,2
41,72,107,2
65,84,113,2
42,99,182,2
-17,93,195,2
42,92,119,2
37,95,122,2
-5,67,168,2
-5,72,173,2
1,66,121,2
17,94,124,2
5,75,166,2
-6,63,196,2
18,66,157,2
34,63,104,2
-6,81,170,2
-6,98,189,2
66,65,164,2
-3,89,126,2
69,67,192,2
27,88,150,2
34,91,192,2
87,75,137,2
79,77,196,2
82,86,156,2
39,86,195,2
-7,95,185,2
31,66,145,2
-20,67,182,2
59,62,188,2
33,85,179,2
48,60,143,2
82,97,154,2
15,71,192,2
48,60,131,2
23,70,168,2
55,89,199,2
56,90,130,2
8,82,124,2
89,76,171,2
28,72,192,2
20,60,172,2
65,89,176,2
19,61,132,2
2,68,126,2
61,89,154,2
-9,85,126,2
51,73,110,2
84,74,123,2
-16,69,141,2
76,87,189,2
30,80,159,2
89,66,177,2
91,92,103,2
10,76,119,2
12,93,100,2
4,98,154,2
54,96,176,2
32,83,130,2
-9,85,144,2
-13,98,153,2
33,95,168,2
38,89,109,2
78,73,157,2
37,60,142,2
79,72,103,2
94,83,175,2
79,66,131,2
72,60,181,2
36,67,101,2
59,86,119,2
-13,74,139,2
51,83,111,2
-10,98,114,2
11,91,110,2
96,62,197,2
-14,65,168,2
64,71,186,2
-4,84,148,2
-8,77,112,2
41,80,192,2
72,70,183,2
63,69,150,2
56,62,155,2
26,80,163,2
62,80,174,2
7,87,132,2
68,66,134,2
87,70,127,2
65,64,187,2
60,69,181,2
97,96,165,2
26,78,102,2
10,71,116,2
6,81,105,2
74,77,116,2
54,69,164,2
10,89,103,2
-19,88,178,2
75,86,183,2
16,94,172,2
-15,84,133,2
22,71,180,2
58,87,141,2
3,95,148,2
17,67,133,2
53,81,130,2
57,89,181,2
-20,99,120,2
59,80,116,2
